VirtualBox GUI VM Selector Window 5.1.14 r112924 win.amd64 (Jan 16 2017 16:36:58) release log
00:00:00.104902 Log opened 2017-04-23T05:45:01.962130100Z
00:00:00.104902 Build Type: release
00:00:00.104902 OS Product: Windows 10
00:00:00.104902 OS Release: 10.0.14393
00:00:00.104902 OS Service Pack: 
00:00:00.150873 DMI Product Name: Razer Blade
00:00:00.153870 DMI Product Version: XPT551T6EBFB
00:00:00.154871 Host RAM: 8115MB (7.9GB) total, 3813MB (3.7GB) available
00:00:00.154871 Executable: C:\Program Files\Oracle\VirtualBox\VirtualBox.exe
00:00:00.154871 Process ID: 11952
00:00:00.154871 Package type: WINDOWS_64BITS_GENERIC
00:00:00.154871 Qt version: 5.6.2
00:00:00.166880 GUI: UIMediumEnumerator: Medium-enumeration started...
00:00:00.265830 GUI: UIMediumEnumerator: Medium-enumeration finished!
00:00:00.313859 refreshCertificates/#3: Found 1/86 SSL certs we/you trust (previously 0/0).
