VirtualBox VM 5.1.14 r112924 win.amd64 (Jan 16 2017 16:36:58) release log
00:00:02.084824 Log opened 2017-04-12T17:38:48.707400700Z
00:00:02.084825 Build Type: release
00:00:02.084828 OS Product: Windows 10
00:00:02.084829 OS Release: 10.0.14393
00:00:02.084829 OS Service Pack: 
00:00:02.130067 DMI Product Name: Razer Blade
00:00:02.132872 DMI Product Version: XPT551T6EBFB
00:00:02.132878 Host RAM: 8115MB (7.9GB) total, 3417MB (3.3GB) available
00:00:02.132881 Executable: C:\Program Files\Oracle\VirtualBox\VirtualBox.exe
00:00:02.132881 Process ID: 11716
00:00:02.132882 Package type: WINDOWS_64BITS_GENERIC
00:00:02.133575 Installed Extension Packs:
00:00:02.133599   None installed!
00:00:02.134048 Console: Machine state changed to 'Starting'
00:00:02.134701 Qt version: 5.6.2
00:00:02.136323 GUI: UIMediumEnumerator: Medium-enumeration finished!
00:00:02.229006 SUP: Loaded VMMR0.r0 (C:\Program Files\Oracle\VirtualBox\VMMR0.r0) at 0xfffff8048ba90000 - ModuleInit at fffff8048bab3550 and ModuleTerm at fffff8048bab3a40 using the native ring-0 loader
00:00:02.229022 SUP: VMMR0EntryEx located at fffff8048bab6450 and VMMR0EntryFast at fffff8048bab4170
00:00:02.229026 SUP: windbg> .reload /f C:\Program Files\Oracle\VirtualBox\VMMR0.r0=0xfffff8048ba90000
00:00:02.230387 Guest OS type: 'Ubuntu_64'
00:00:02.231868 fHMForced=true - 64-bit guest
00:00:02.235450 File system of 'C:\Users\Alex\Downloads\prextimg\Snapshots' (snapshots) is ntfs
00:00:02.235458 File system of 'C:\Users\Alex\Downloads\prextimg\prextimg.vdi' is ntfs
00:00:02.253548 Shared clipboard service loaded
00:00:02.253578 Shared clipboard mode: Bidirectional
00:00:02.267802 Drag and drop service loaded
00:00:02.267824 Drag and drop mode: Off
00:00:02.286003 Guest Control service loaded
00:00:02.287305 ************************* CFGM dump *************************
00:00:02.287307 [/] (level 0)
00:00:02.287311   CSAMEnabled       <integer> = 0x0000000000000001 (1)
00:00:02.287313   CpuExecutionCap   <integer> = 0x0000000000000064 (100)
00:00:02.287315   EnablePAE         <integer> = 0x0000000000000000 (0)
00:00:02.287317   HMEnabled         <integer> = 0x0000000000000001 (1)
00:00:02.287318   MemBalloonSize    <integer> = 0x0000000000000000 (0)
00:00:02.287319   Name              <string>  = "prextimg" (cb=9)
00:00:02.287321   NumCPUs           <integer> = 0x0000000000000001 (1)
00:00:02.287322   PATMEnabled       <integer> = 0x0000000000000001 (1)
00:00:02.287323   PageFusionAllowed <integer> = 0x0000000000000000 (0)
00:00:02.287324   RamHoleSize       <integer> = 0x0000000020000000 (536 870 912, 512 MB)
00:00:02.287327   RamSize           <integer> = 0x0000000080000000 (2 147 483 648, 2 048 MB)
00:00:02.287329   RawR0Enabled      <integer> = 0x0000000000000001 (1)
00:00:02.287331   RawR3Enabled      <integer> = 0x0000000000000001 (1)
00:00:02.287332   TimerMillies      <integer> = 0x000000000000000a (10)
00:00:02.287333   UUID              <bytes>   = "a5 6e 43 6b 5d 03 ab 4c 99 29 6c 6c 8c 9b 48 1a" (cb=16)
00:00:02.287337 
00:00:02.287337 [/CPUM/] (level 1)
00:00:02.287339   GuestCpuName       <string>  = "host" (cb=5)
00:00:02.287340   PortableCpuIdLevel <integer> = 0x0000000000000000 (0)
00:00:02.287341 
00:00:02.287342 [/DBGC/] (level 1)
00:00:02.287343   GlobalInitScript <string>  = "C:\Users\Alex\.VirtualBox/dbgc-init" (cb=36)
00:00:02.287344   HistoryFile      <string>  = "C:\Users\Alex\.VirtualBox/dbgc-history" (cb=39)
00:00:02.287346   LocalInitScript  <string>  = "C:\Users\Alex\Downloads\prextimg/dbgc-init" (cb=43)
00:00:02.287347 
00:00:02.287347 [/DBGF/] (level 1)
00:00:02.287348   Path <string>  = "C:\Users\Alex\Downloads\prextimg/debug/;C:\Users\Alex\Downloads\prextimg/;C:\Users\Alex\" (cb=89)
00:00:02.287349 
00:00:02.287350 [/Devices/] (level 1)
00:00:02.287351 
00:00:02.287351 [/Devices/8237A/] (level 2)
00:00:02.287352 
00:00:02.287353 [/Devices/8237A/0/] (level 3)
00:00:02.287354   Trusted <integer> = 0x0000000000000001 (1)
00:00:02.287355 
00:00:02.287356 [/Devices/GIMDev/] (level 2)
00:00:02.287357 
00:00:02.287357 [/Devices/GIMDev/0/] (level 3)
00:00:02.287359   Trusted <integer> = 0x0000000000000001 (1)
00:00:02.287359 
00:00:02.287360 [/Devices/VMMDev/] (level 2)
00:00:02.287361 
00:00:02.287361 [/Devices/VMMDev/0/] (level 3)
00:00:02.287363   PCIBusNo      <integer> = 0x0000000000000000 (0)
00:00:02.287364   PCIDeviceNo   <integer> = 0x0000000000000004 (4)
00:00:02.287365   PCIFunctionNo <integer> = 0x0000000000000000 (0)
00:00:02.287366   Trusted       <integer> = 0x0000000000000001 (1)
00:00:02.287367 
00:00:02.287368 [/Devices/VMMDev/0/Config/] (level 4)
00:00:02.287369   GuestCoreDumpDir <string>  = "C:\Users\Alex\Downloads\prextimg\Snapshots" (cb=43)
00:00:02.287370   RamSize          <integer> = 0x0000000080000000 (2 147 483 648, 2 048 MB)
00:00:02.287372 
00:00:02.287373 [/Devices/VMMDev/0/LUN#0/] (level 4)
00:00:02.287374   Driver <string>  = "HGCM" (cb=5)
00:00:02.287375 
00:00:02.287376 [/Devices/VMMDev/0/LUN#0/Config/] (level 5)
00:00:02.287378   Object <integer> = 0x0000000004b92a30 (79 243 824)
00:00:02.287379 
00:00:02.287380 [/Devices/VMMDev/0/LUN#999/] (level 4)
00:00:02.287381   Driver <string>  = "MainStatus" (cb=11)
00:00:02.287382 
00:00:02.287383 [/Devices/VMMDev/0/LUN#999/Config/] (level 5)
00:00:02.287384   First   <integer> = 0x0000000000000000 (0)
00:00:02.287385   Last    <integer> = 0x0000000000000000 (0)
00:00:02.287386   papLeds <integer> = 0x00000000025dc248 (39 699 016)
00:00:02.287388 
00:00:02.287389 [/Devices/acpi/] (level 2)
00:00:02.287390 
00:00:02.287390 [/Devices/acpi/0/] (level 3)
00:00:02.287391   PCIBusNo      <integer> = 0x0000000000000000 (0)
00:00:02.287393   PCIDeviceNo   <integer> = 0x0000000000000007 (7)
00:00:02.287394   PCIFunctionNo <integer> = 0x0000000000000000 (0)
00:00:02.287395   Trusted       <integer> = 0x0000000000000001 (1)
00:00:02.287395 
00:00:02.287396 [/Devices/acpi/0/Config/] (level 4)
00:00:02.287398   CpuHotPlug          <integer> = 0x0000000000000000 (0)
00:00:02.287399   FdcEnabled          <integer> = 0x0000000000000000 (0)
00:00:02.287400   HostBusPciAddress   <integer> = 0x0000000000000000 (0)
00:00:02.287401   HpetEnabled         <integer> = 0x0000000000000000 (0)
00:00:02.287402   IOAPIC              <integer> = 0x0000000000000001 (1)
00:00:02.287403   IocPciAddress       <integer> = 0x0000000000010000 (65 536)
00:00:02.287405   NumCPUs             <integer> = 0x0000000000000001 (1)
00:00:02.287406   Parallel0IoPortBase <integer> = 0x0000000000000000 (0)
00:00:02.287407   Parallel0Irq        <integer> = 0x0000000000000000 (0)
00:00:02.287408   Parallel1IoPortBase <integer> = 0x0000000000000000 (0)
00:00:02.287409   Parallel1Irq        <integer> = 0x0000000000000000 (0)
00:00:02.287410   RamHoleSize         <integer> = 0x0000000020000000 (536 870 912, 512 MB)
00:00:02.287412   RamSize             <integer> = 0x0000000080000000 (2 147 483 648, 2 048 MB)
00:00:02.287414   Serial0IoPortBase   <integer> = 0x0000000000000000 (0)
00:00:02.287415   Serial0Irq          <integer> = 0x0000000000000000 (0)
00:00:02.287416   Serial1IoPortBase   <integer> = 0x0000000000000000 (0)
00:00:02.287417   Serial1Irq          <integer> = 0x0000000000000000 (0)
00:00:02.287418   ShowCpu             <integer> = 0x0000000000000001 (1)
00:00:02.287419   ShowRtc             <integer> = 0x0000000000000000 (0)
00:00:02.287421   SmcEnabled          <integer> = 0x0000000000000000 (0)
00:00:02.287422 
00:00:02.287422 [/Devices/acpi/0/LUN#0/] (level 4)
00:00:02.287423   Driver <string>  = "ACPIHost" (cb=9)
00:00:02.287424 
00:00:02.287425 [/Devices/acpi/0/LUN#0/Config/] (level 5)
00:00:02.287426 
00:00:02.287427 [/Devices/ahci/] (level 2)
00:00:02.287428 
00:00:02.287428 [/Devices/ahci/0/] (level 3)
00:00:02.287430   PCIBusNo      <integer> = 0x0000000000000000 (0)
00:00:02.287431   PCIDeviceNo   <integer> = 0x000000000000000d (13)
00:00:02.287432   PCIFunctionNo <integer> = 0x0000000000000000 (0)
00:00:02.287433   Trusted       <integer> = 0x0000000000000001 (1)
00:00:02.287434 
00:00:02.287434 [/Devices/ahci/0/Config/] (level 4)
00:00:02.287436   Bootable  <integer> = 0x0000000000000001 (1)
00:00:02.287436   PortCount <integer> = 0x0000000000000001 (1)
00:00:02.287437 
00:00:02.287438 [/Devices/ahci/0/Config/Port0/] (level 5)
00:00:02.287440   Hotpluggable        <integer> = 0x0000000000000000 (0)
00:00:02.287441   NonRotationalMedium <integer> = 0x0000000000000000 (0)
00:00:02.287442 
00:00:02.287442 [/Devices/ahci/0/LUN#0/] (level 4)
00:00:02.287443   Driver <string>  = "VD" (cb=3)
00:00:02.287444 
00:00:02.287445 [/Devices/ahci/0/LUN#0/Config/] (level 5)
00:00:02.287447   BlockCache <integer> = 0x0000000000000001 (1)
00:00:02.287448   Format     <string>  = "VDI" (cb=4)
00:00:02.287449   Mountable  <integer> = 0x0000000000000000 (0)
00:00:02.287450   Path       <string>  = "C:\Users\Alex\Downloads\prextimg\prextimg.vdi" (cb=46)
00:00:02.287451   Type       <string>  = "HardDisk" (cb=9)
00:00:02.287452   UseNewIo   <integer> = 0x0000000000000001 (1)
00:00:02.287453 
00:00:02.287453 [/Devices/ahci/0/LUN#999/] (level 4)
00:00:02.287455   Driver <string>  = "MainStatus" (cb=11)
00:00:02.287456 
00:00:02.287456 [/Devices/ahci/0/LUN#999/Config/] (level 5)
00:00:02.287458   DeviceInstance        <string>  = "ahci/0" (cb=7)
00:00:02.287459   First                 <integer> = 0x0000000000000000 (0)
00:00:02.287460   Last                  <integer> = 0x0000000000000000 (0)
00:00:02.287461   pConsole              <integer> = 0x00000000025dba40 (39 696 960)
00:00:02.287463   papLeds               <integer> = 0x00000000025dbe48 (39 697 992)
00:00:02.287464   pmapMediumAttachments <integer> = 0x00000000025dc268 (39 699 048)
00:00:02.287466 
00:00:02.287466 [/Devices/apic/] (level 2)
00:00:02.287467 
00:00:02.287468 [/Devices/apic/0/] (level 3)
00:00:02.287469   Trusted <integer> = 0x0000000000000001 (1)
00:00:02.287470 
00:00:02.287471 [/Devices/apic/0/Config/] (level 4)
00:00:02.287472   IOAPIC  <integer> = 0x0000000000000001 (1)
00:00:02.287473   Mode    <integer> = 0x0000000000000002 (2)
00:00:02.287474   NumCPUs <integer> = 0x0000000000000001 (1)
00:00:02.287475 
00:00:02.287475 [/Devices/e1000/] (level 2)
00:00:02.287477 
00:00:02.287477 [/Devices/e1000/0/] (level 3)
00:00:02.287479   PCIBusNo      <integer> = 0x0000000000000000 (0)
00:00:02.287480   PCIDeviceNo   <integer> = 0x0000000000000003 (3)
00:00:02.287481   PCIFunctionNo <integer> = 0x0000000000000000 (0)
00:00:02.287481   Trusted       <integer> = 0x0000000000000001 (1)
00:00:02.287482 
00:00:02.287483 [/Devices/e1000/0/Config/] (level 4)
00:00:02.287485   AdapterType    <integer> = 0x0000000000000000 (0)
00:00:02.287485   CableConnected <integer> = 0x0000000000000001 (1)
00:00:02.287486   LineSpeed      <integer> = 0x0000000000000000 (0)
00:00:02.287487   MAC            <bytes>   = "08 00 27 32 db ec" (cb=6)
00:00:02.287489 
00:00:02.287490 [/Devices/e1000/0/LUN#0/] (level 4)
00:00:02.287491   Driver <string>  = "NAT" (cb=4)
00:00:02.287492 
00:00:02.287493 [/Devices/e1000/0/LUN#0/Config/] (level 5)
00:00:02.287495   AliasMode       <integer> = 0x0000000000000000 (0)
00:00:02.287496   BootFile        <string>  = "prextimg.pxe" (cb=13)
00:00:02.287497   DNSProxy        <integer> = 0x0000000000000000 (0)
00:00:02.287498   Network         <string>  = "10.0.2.0/24" (cb=12)
00:00:02.287499   PassDomain      <integer> = 0x0000000000000001 (1)
00:00:02.287500   TFTPPrefix      <string>  = "C:\Users\Alex\.VirtualBox\TFTP" (cb=31)
00:00:02.287501   UseHostResolver <integer> = 0x0000000000000000 (0)
00:00:02.287502 
00:00:02.287503 [/Devices/e1000/0/LUN#999/] (level 4)
00:00:02.287504   Driver <string>  = "MainStatus" (cb=11)
00:00:02.287505 
00:00:02.287505 [/Devices/e1000/0/LUN#999/Config/] (level 5)
00:00:02.287507   First   <integer> = 0x0000000000000000 (0)
00:00:02.287508   Last    <integer> = 0x0000000000000000 (0)
00:00:02.287509   papLeds <integer> = 0x00000000025dc128 (39 698 728)
00:00:02.287510 
00:00:02.287511 [/Devices/i8254/] (level 2)
00:00:02.287512 
00:00:02.287512 [/Devices/i8254/0/] (level 3)
00:00:02.287513 
00:00:02.287514 [/Devices/i8254/0/Config/] (level 4)
00:00:02.287515 
00:00:02.287516 [/Devices/i8259/] (level 2)
00:00:02.287517 
00:00:02.287517 [/Devices/i8259/0/] (level 3)
00:00:02.287518   Trusted <integer> = 0x0000000000000001 (1)
00:00:02.287519 
00:00:02.287520 [/Devices/i8259/0/Config/] (level 4)
00:00:02.287521 
00:00:02.287521 [/Devices/ichac97/] (level 2)
00:00:02.287522 
00:00:02.287523 [/Devices/ichac97/0/] (level 3)
00:00:02.287524   PCIBusNo      <integer> = 0x0000000000000000 (0)
00:00:02.287525   PCIDeviceNo   <integer> = 0x0000000000000005 (5)
00:00:02.287526   PCIFunctionNo <integer> = 0x0000000000000000 (0)
00:00:02.287527   Trusted       <integer> = 0x0000000000000001 (1)
00:00:02.287528 
00:00:02.287528 [/Devices/ichac97/0/AudioConfig/] (level 4)
00:00:02.287530 
00:00:02.287530 [/Devices/ichac97/0/Config/] (level 4)
00:00:02.287532   Codec <string>  = "AD1980" (cb=7)
00:00:02.287533 
00:00:02.287533 [/Devices/ichac97/0/LUN#0/] (level 4)
00:00:02.287535   Driver <string>  = "AUDIO" (cb=6)
00:00:02.287536 
00:00:02.287536 [/Devices/ichac97/0/LUN#0/AttachedDriver/] (level 5)
00:00:02.287538   Driver <string>  = "DSoundAudio" (cb=12)
00:00:02.287539 
00:00:02.287539 [/Devices/ichac97/0/LUN#0/AttachedDriver/Config/] (level 6)
00:00:02.287541   StreamName <string>  = "prextimg" (cb=9)
00:00:02.287542 
00:00:02.287542 [/Devices/ichac97/0/LUN#0/Config/] (level 5)
00:00:02.287544 
00:00:02.287544 [/Devices/ichac97/0/LUN#1/] (level 4)
00:00:02.287546   Driver <string>  = "AUDIO" (cb=6)
00:00:02.287546 
00:00:02.287547 [/Devices/ichac97/0/LUN#1/AttachedDriver/] (level 5)
00:00:02.287549   Driver <string>  = "AudioVRDE" (cb=10)
00:00:02.287550 
00:00:02.287550 [/Devices/ichac97/0/LUN#1/AttachedDriver/Config/] (level 6)
00:00:02.287552   AudioDriver      <string>  = "AudioVRDE" (cb=10)
00:00:02.287553   Object           <integer> = 0x00000000025ba780 (39 561 088)
00:00:02.287554   ObjectVRDPServer <integer> = 0x00000000025e5d50 (39 738 704)
00:00:02.287556   StreamName       <string>  = "prextimg" (cb=9)
00:00:02.287557 
00:00:02.287557 [/Devices/ioapic/] (level 2)
00:00:02.287558 
00:00:02.287559 [/Devices/ioapic/0/] (level 3)
00:00:02.287560   Trusted <integer> = 0x0000000000000001 (1)
00:00:02.287561 
00:00:02.287561 [/Devices/ioapic/0/Config/] (level 4)
00:00:02.287563   NumCPUs <integer> = 0x0000000000000001 (1)
00:00:02.287564 
00:00:02.287564 [/Devices/mc146818/] (level 2)
00:00:02.287565 
00:00:02.287566 [/Devices/mc146818/0/] (level 3)
00:00:02.287567 
00:00:02.287567 [/Devices/mc146818/0/Config/] (level 4)
00:00:02.287569   UseUTC <integer> = 0x0000000000000001 (1)
00:00:02.287570 
00:00:02.287571 [/Devices/parallel/] (level 2)
00:00:02.287572 
00:00:02.287572 [/Devices/pcarch/] (level 2)
00:00:02.287573 
00:00:02.287574 [/Devices/pcarch/0/] (level 3)
00:00:02.287575   Trusted <integer> = 0x0000000000000001 (1)
00:00:02.287576 
00:00:02.287576 [/Devices/pcarch/0/Config/] (level 4)
00:00:02.287577 
00:00:02.287578 [/Devices/pcbios/] (level 2)
00:00:02.287579 
00:00:02.287579 [/Devices/pcbios/0/] (level 3)
00:00:02.287581   Trusted <integer> = 0x0000000000000001 (1)
00:00:02.287582 
00:00:02.287582 [/Devices/pcbios/0/Config/] (level 4)
00:00:02.287584   APIC               <integer> = 0x0000000000000001 (1)
00:00:02.287585   BootDevice0        <string>  = "FLOPPY" (cb=7)
00:00:02.287586   BootDevice1        <string>  = "DVD" (cb=4)
00:00:02.287587   BootDevice2        <string>  = "IDE" (cb=4)
00:00:02.287588   BootDevice3        <string>  = "NONE" (cb=5)
00:00:02.287589   FloppyDevice       <string>  = "i82078" (cb=7)
00:00:02.287590   HardDiskDevice     <string>  = "piix3ide" (cb=9)
00:00:02.287591   IOAPIC             <integer> = 0x0000000000000001 (1)
00:00:02.287594   McfgBase           <integer> = 0x0000000000000000 (0)
00:00:02.287596   McfgLength         <integer> = 0x0000000000000000 (0)
00:00:02.287597   NumCPUs            <integer> = 0x0000000000000001 (1)
00:00:02.287598   PXEDebug           <integer> = 0x0000000000000000 (0)
00:00:02.287599   RamHoleSize        <integer> = 0x0000000020000000 (536 870 912, 512 MB)
00:00:02.287601   RamSize            <integer> = 0x0000000080000000 (2 147 483 648, 2 048 MB)
00:00:02.287603   SataHardDiskDevice <string>  = "ahci" (cb=5)
00:00:02.287604   SataLUN1           <integer> = 0x0000000000000000 (0)
00:00:02.287605   UUID               <bytes>   = "a5 6e 43 6b 5d 03 ab 4c 99 29 6c 6c 8c 9b 48 1a" (cb=16)
00:00:02.287608 
00:00:02.287608 [/Devices/pcbios/0/Config/NetBoot/] (level 5)
00:00:02.287610 
00:00:02.287610 [/Devices/pcbios/0/Config/NetBoot/0/] (level 6)
00:00:02.287612   NIC           <integer> = 0x0000000000000000 (0)
00:00:02.287613   PCIBusNo      <integer> = 0x0000000000000000 (0)
00:00:02.287614   PCIDeviceNo   <integer> = 0x0000000000000003 (3)
00:00:02.287615   PCIFunctionNo <integer> = 0x0000000000000000 (0)
00:00:02.287616 
00:00:02.287616 [/Devices/pci/] (level 2)
00:00:02.287617 
00:00:02.287618 [/Devices/pci/0/] (level 3)
00:00:02.287619   Trusted <integer> = 0x0000000000000001 (1)
00:00:02.287620 
00:00:02.287621 [/Devices/pci/0/Config/] (level 4)
00:00:02.287622   IOAPIC <integer> = 0x0000000000000001 (1)
00:00:02.287623 
00:00:02.287623 [/Devices/pckbd/] (level 2)
00:00:02.287624 
00:00:02.287625 [/Devices/pckbd/0/] (level 3)
00:00:02.287626   Trusted <integer> = 0x0000000000000001 (1)
00:00:02.287627 
00:00:02.287628 [/Devices/pckbd/0/Config/] (level 4)
00:00:02.287629 
00:00:02.287629 [/Devices/pckbd/0/LUN#0/] (level 4)
00:00:02.287631   Driver <string>  = "KeyboardQueue" (cb=14)
00:00:02.287632 
00:00:02.287632 [/Devices/pckbd/0/LUN#0/AttachedDriver/] (level 5)
00:00:02.287634   Driver <string>  = "MainKeyboard" (cb=13)
00:00:02.287635 
00:00:02.287636 [/Devices/pckbd/0/LUN#0/AttachedDriver/Config/] (level 6)
00:00:02.287637   Object <integer> = 0x0000000002594280 (39 404 160)
00:00:02.287639 
00:00:02.287639 [/Devices/pckbd/0/LUN#0/Config/] (level 5)
00:00:02.287641   QueueSize <integer> = 0x0000000000000040 (64)
00:00:02.287642 
00:00:02.287642 [/Devices/pckbd/0/LUN#1/] (level 4)
00:00:02.287644   Driver <string>  = "MouseQueue" (cb=11)
00:00:02.287645 
00:00:02.287645 [/Devices/pckbd/0/LUN#1/AttachedDriver/] (level 5)
00:00:02.287647   Driver <string>  = "MainMouse" (cb=10)
00:00:02.287647 
00:00:02.287648 [/Devices/pckbd/0/LUN#1/AttachedDriver/Config/] (level 6)
00:00:02.287649   Object <integer> = 0x00000000025dcc70 (39 701 616)
00:00:02.287651 
00:00:02.287651 [/Devices/pckbd/0/LUN#1/Config/] (level 5)
00:00:02.287653   QueueSize <integer> = 0x0000000000000080 (128)
00:00:02.287654 
00:00:02.287654 [/Devices/pcnet/] (level 2)
00:00:02.287656 
00:00:02.287656 [/Devices/piix3ide/] (level 2)
00:00:02.287657 
00:00:02.287657 [/Devices/piix3ide/0/] (level 3)
00:00:02.287659   PCIBusNo      <integer> = 0x0000000000000000 (0)
00:00:02.287660   PCIDeviceNo   <integer> = 0x0000000000000001 (1)
00:00:02.287661   PCIFunctionNo <integer> = 0x0000000000000001 (1)
00:00:02.287662   Trusted       <integer> = 0x0000000000000001 (1)
00:00:02.287663 
00:00:02.287663 [/Devices/piix3ide/0/Config/] (level 4)
00:00:02.287665   Type <string>  = "PIIX4" (cb=6)
00:00:02.287666 
00:00:02.287666 [/Devices/piix3ide/0/Config/SecondaryMaster/] (level 5)
00:00:02.287668   NonRotationalMedium <integer> = 0x0000000000000000 (0)
00:00:02.287669 
00:00:02.287669 [/Devices/piix3ide/0/LUN#2/] (level 4)
00:00:02.287671   Driver <string>  = "VD" (cb=3)
00:00:02.287672 
00:00:02.287672 [/Devices/piix3ide/0/LUN#2/Config/] (level 5)
00:00:02.287674   EmptyDrive <integer> = 0x0000000000000001 (1)
00:00:02.287675   Mountable  <integer> = 0x0000000000000001 (1)
00:00:02.287676   Type       <string>  = "DVD" (cb=4)
00:00:02.287677 
00:00:02.287677 [/Devices/piix3ide/0/LUN#999/] (level 4)
00:00:02.287679   Driver <string>  = "MainStatus" (cb=11)
00:00:02.287680 
00:00:02.287680 [/Devices/piix3ide/0/LUN#999/Config/] (level 5)
00:00:02.287682   DeviceInstance        <string>  = "piix3ide/0" (cb=11)
00:00:02.287683   First                 <integer> = 0x0000000000000000 (0)
00:00:02.287684   Last                  <integer> = 0x0000000000000003 (3)
00:00:02.287685   pConsole              <integer> = 0x00000000025dba40 (39 696 960)
00:00:02.287687   papLeds               <integer> = 0x00000000025dbe28 (39 697 960)
00:00:02.287688   pmapMediumAttachments <integer> = 0x00000000025dc268 (39 699 048)
00:00:02.287690 
00:00:02.287690 [/Devices/serial/] (level 2)
00:00:02.287691 
00:00:02.287692 [/Devices/usb-ohci/] (level 2)
00:00:02.287693 
00:00:02.287693 [/Devices/usb-ohci/0/] (level 3)
00:00:02.287695   PCIBusNo      <integer> = 0x0000000000000000 (0)
00:00:02.287696   PCIDeviceNo   <integer> = 0x0000000000000006 (6)
00:00:02.287697   PCIFunctionNo <integer> = 0x0000000000000000 (0)
00:00:02.287698   Trusted       <integer> = 0x0000000000000001 (1)
00:00:02.287699 
00:00:02.287699 [/Devices/usb-ohci/0/Config/] (level 4)
00:00:02.287700 
00:00:02.287701 [/Devices/usb-ohci/0/LUN#0/] (level 4)
00:00:02.287702   Driver <string>  = "VUSBRootHub" (cb=12)
00:00:02.287703 
00:00:02.287704 [/Devices/usb-ohci/0/LUN#0/Config/] (level 5)
00:00:02.287705 
00:00:02.287705 [/Devices/usb-ohci/0/LUN#999/] (level 4)
00:00:02.287707   Driver <string>  = "MainStatus" (cb=11)
00:00:02.287708 
00:00:02.287708 [/Devices/usb-ohci/0/LUN#999/Config/] (level 5)
00:00:02.287710   First   <integer> = 0x0000000000000000 (0)
00:00:02.287711   Last    <integer> = 0x0000000000000000 (0)
00:00:02.287711   papLeds <integer> = 0x00000000025dc250 (39 699 024)
00:00:02.287713 
00:00:02.287713 [/Devices/vga/] (level 2)
00:00:02.287714 
00:00:02.287715 [/Devices/vga/0/] (level 3)
00:00:02.287716   PCIBusNo      <integer> = 0x0000000000000000 (0)
00:00:02.287717   PCIDeviceNo   <integer> = 0x0000000000000002 (2)
00:00:02.287718   PCIFunctionNo <integer> = 0x0000000000000000 (0)
00:00:02.287719   Trusted       <integer> = 0x0000000000000001 (1)
00:00:02.287720 
00:00:02.287721 [/Devices/vga/0/Config/] (level 4)
00:00:02.287722   CustomVideoModes <integer> = 0x0000000000000000 (0)
00:00:02.287723   FadeIn           <integer> = 0x0000000000000001 (1)
00:00:02.287724   FadeOut          <integer> = 0x0000000000000001 (1)
00:00:02.287725   HeightReduction  <integer> = 0x0000000000000000 (0)
00:00:02.287726   LogoFile         <string>  = "" (cb=1)
00:00:02.287727   LogoTime         <integer> = 0x0000000000000000 (0)
00:00:02.287728   MonitorCount     <integer> = 0x0000000000000001 (1)
00:00:02.287729   ShowBootMenu     <integer> = 0x0000000000000002 (2)
00:00:02.287730   VRamSize         <integer> = 0x0000000000c00000 (12 582 912, 12 MB)
00:00:02.287732 
00:00:02.287733 [/Devices/vga/0/LUN#0/] (level 4)
00:00:02.287734   Driver <string>  = "MainDisplay" (cb=12)
00:00:02.287735 
00:00:02.287735 [/Devices/vga/0/LUN#0/Config/] (level 5)
00:00:02.287737   Object <integer> = 0x00000000025e2c60 (39 726 176)
00:00:02.287738 
00:00:02.287738 [/Devices/vga/0/LUN#999/] (level 4)
00:00:02.287740   Driver <string>  = "MainStatus" (cb=11)
00:00:02.287741 
00:00:02.287741 [/Devices/vga/0/LUN#999/Config/] (level 5)
00:00:02.287743   First   <integer> = 0x0000000000000000 (0)
00:00:02.287744   Last    <integer> = 0x0000000000000000 (0)
00:00:02.287745   papLeds <integer> = 0x00000000025dc260 (39 699 040)
00:00:02.287746 
00:00:02.287746 [/Devices/virtio-net/] (level 2)
00:00:02.287748 
00:00:02.287748 [/EM/] (level 1)
00:00:02.287749   TripleFaultReset <integer> = 0x0000000000000000 (0)
00:00:02.287750 
00:00:02.287751 [/GIM/] (level 1)
00:00:02.287752   Provider <string>  = "KVM" (cb=4)
00:00:02.287753 
00:00:02.287753 [/HM/] (level 1)
00:00:02.287755   64bitEnabled       <integer> = 0x0000000000000001 (1)
00:00:02.287756   EnableLargePages   <integer> = 0x0000000000000000 (0)
00:00:02.287757   EnableNestedPaging <integer> = 0x0000000000000001 (1)
00:00:02.287758   EnableUX           <integer> = 0x0000000000000001 (1)
00:00:02.287759   EnableVPID         <integer> = 0x0000000000000001 (1)
00:00:02.287760   Exclusive          <integer> = 0x0000000000000000 (0)
00:00:02.287761   HMForced           <integer> = 0x0000000000000001 (1)
00:00:02.287762 
00:00:02.287762 [/MM/] (level 1)
00:00:02.287763   CanUseLargerHeap <integer> = 0x0000000000000000 (0)
00:00:02.287764 
00:00:02.287765 [/PDM/] (level 1)
00:00:02.287766 
00:00:02.287766 [/PDM/AsyncCompletion/] (level 2)
00:00:02.287767 
00:00:02.287768 [/PDM/AsyncCompletion/File/] (level 3)
00:00:02.287769 
00:00:02.287770 [/PDM/AsyncCompletion/File/BwGroups/] (level 4)
00:00:02.287771 
00:00:02.287772 [/PDM/BlkCache/] (level 2)
00:00:02.287773   CacheSize <integer> = 0x0000000000500000 (5 242 880, 5 MB)
00:00:02.287775 
00:00:02.287775 [/PDM/Devices/] (level 2)
00:00:02.287776 
00:00:02.287777 [/PDM/Drivers/] (level 2)
00:00:02.287778 
00:00:02.287778 [/PDM/Drivers/VBoxC/] (level 3)
00:00:02.287779   Path <string>  = "VBoxC" (cb=6)
00:00:02.287780 
00:00:02.287781 [/PDM/NetworkShaper/] (level 2)
00:00:02.287782 
00:00:02.287782 [/PDM/NetworkShaper/BwGroups/] (level 3)
00:00:02.287784 
00:00:02.287784 [/TM/] (level 1)
00:00:02.287785   UTCOffset <integer> = 0x0000000000000000 (0)
00:00:02.287786 
00:00:02.287787 [/USB/] (level 1)
00:00:02.287788 
00:00:02.287788 [/USB/HidMouse/] (level 2)
00:00:02.287789 
00:00:02.287789 [/USB/HidMouse/0/] (level 3)
00:00:02.287791 
00:00:02.287791 [/USB/HidMouse/0/Config/] (level 4)
00:00:02.287792   Mode <string>  = "absolute" (cb=9)
00:00:02.287793 
00:00:02.287794 [/USB/HidMouse/0/LUN#0/] (level 4)
00:00:02.287795   Driver <string>  = "MouseQueue" (cb=11)
00:00:02.287796 
00:00:02.287797 [/USB/HidMouse/0/LUN#0/AttachedDriver/] (level 5)
00:00:02.287798   Driver <string>  = "MainMouse" (cb=10)
00:00:02.287799 
00:00:02.287800 [/USB/HidMouse/0/LUN#0/AttachedDriver/Config/] (level 6)
00:00:02.287801   Object <integer> = 0x00000000025dcc70 (39 701 616)
00:00:02.287803 
00:00:02.287803 [/USB/HidMouse/0/LUN#0/Config/] (level 5)
00:00:02.287805   QueueSize <integer> = 0x0000000000000080 (128)
00:00:02.287806 
00:00:02.287806 [/USB/USBProxy/] (level 2)
00:00:02.287807 
00:00:02.287808 [/USB/USBProxy/GlobalConfig/] (level 3)
00:00:02.287809 
00:00:02.287810 ********************* End of CFGM dump **********************
00:00:02.287844 VM: fHMEnabled=true  (configured) fRecompileUser=false fRecompileSupervisor=false
00:00:02.287847 VM: fRawRing1Enabled=false CSAM=true  PATM=true 
00:00:02.288052 HM: HMR3Init: VT-x w/ nested paging and unrestricted guest execution hw support
00:00:02.288166 MM: cbHyperHeap=0x100000 (1048576)
00:00:02.289613 CPUM: fXStateHostMask=0x7; initial: 0x7; host XCR0=0x7
00:00:02.291404 CPUM: Matched host CPU INTEL 0x6/0x3c/0x3 Intel_Core7_Haswell with CPU DB entry 'Intel Core i7-5600U' (INTEL 0x6/0x3d/0x4 Intel_Core7_Broadwell)
00:00:02.291817 CPUM: VCPU  0: Cached APIC base MSR = 0x0
00:00:02.293214 PGM: HCPhysInterPD=00000000cb437000 HCPhysInterPaePDPT=00000000cb434000 HCPhysInterPaePML4=00000000cb432000
00:00:02.293231 PGM: apInterPTs={00000000cb436000,00000000cb435000} apInterPaePTs={0000000075cb7000,000000002ebb8000} apInterPaePDs={0000000140539000,00000001611ba000,000000019093b000,000000014be3c000} pInterPaePDPT64=00000000cb433000
00:00:02.293241 PGM: Host paging mode: AMD64+PGE+NX
00:00:02.293289 PGM: PGMPool: cMaxPages=1072 (u64MaxPages=1058)
00:00:02.293294 PGM: pgmR3PoolInit: cMaxPages=0x430 cMaxUsers=0x860 cMaxPhysExts=0x860 fCacheEnable=true 
00:00:02.309507 TM: GIP - u32Mode=3 (Invariant) u32UpdateHz=92 u32UpdateIntervalNS=10753600 enmUseTscDelta=2 (Pratically Zero) fGetGipCpu=0xb cCpus=8
00:00:02.309522 TM: GIP - u64CpuHz=2 194 927 607 (0x82d3eff7)  SUPGetCpuHzFromGip => 2 194 927 607
00:00:02.309527 TM: GIP - CPU: iCpuSet=0x0 idCpu=0x0 idApic=0x0 iGipCpu=0x0 i64TSCDelta=0 enmState=3 u64CpuHz=2194927607(*) cErrors=0
00:00:02.309531 TM: GIP - CPU: iCpuSet=0x1 idCpu=0x1 idApic=0x1 iGipCpu=0x3 i64TSCDelta=0 enmState=3 u64CpuHz=2194927769(*) cErrors=0
00:00:02.309534 TM: GIP - CPU: iCpuSet=0x2 idCpu=0x2 idApic=0x2 iGipCpu=0x4 i64TSCDelta=0 enmState=3 u64CpuHz=2194927542(*) cErrors=0
00:00:02.309585 TM: GIP - CPU: iCpuSet=0x3 idCpu=0x3 idApic=0x3 iGipCpu=0x1 i64TSCDelta=0 enmState=3 u64CpuHz=2194936203(*) cErrors=0
00:00:02.309592 TM: GIP - CPU: iCpuSet=0x4 idCpu=0x4 idApic=0x4 iGipCpu=0x2 i64TSCDelta=0 enmState=3 u64CpuHz=2194926575(*) cErrors=0
00:00:02.309594 TM: GIP - CPU: iCpuSet=0x5 idCpu=0x5 idApic=0x5 iGipCpu=0x5 i64TSCDelta=0 enmState=3 u64CpuHz=2194927488(*) cErrors=0
00:00:02.309597 TM: GIP - CPU: iCpuSet=0x6 idCpu=0x6 idApic=0x6 iGipCpu=0x7 i64TSCDelta=0 enmState=3 u64CpuHz=2194927493(*) cErrors=0
00:00:02.309600 TM: GIP - CPU: iCpuSet=0x7 idCpu=0x7 idApic=0x7 iGipCpu=0x6 i64TSCDelta=0 enmState=3 u64CpuHz=2194927477(*) cErrors=0
00:00:02.309688 TM: cTSCTicksPerSecond=2 194 927 607 (0x82d3eff7) enmTSCMode=3 (Dynamic)
00:00:02.309690 TM: TSCTiedToExecution=false TSCNotTiedToHalt=false
00:00:02.310214 VMM: CoreCode: R3=0000000005e10000 R0=ffff9001dbebf000 RC=a096e000 Phys=00000000cb417000 cb=0x1000
00:00:02.310576 IEM: TargetCpu=CURRENT, Microarch=Intel_Core7_Haswell
00:00:02.310750 GIM: Using provider 'KVM' (Implementation version: 0)
00:00:02.310769 CPUM: SetGuestCpuIdFeature: Enabled Hypervisor Present bit
00:00:02.310886 AIOMgr: Default manager type is 'Async'
00:00:02.310891 AIOMgr: Default file backend is 'NonBuffered'
00:00:02.311113 BlkCache: Cache successfully initialized. Cache size is 5242880 bytes
00:00:02.311122 BlkCache: Cache commit interval is 10000 ms
00:00:02.311125 BlkCache: Cache commit threshold is 2621440 bytes
00:00:02.547404 PcBios: [SMP] BIOS with 1 CPUs
00:00:02.547489 PcBios: Using the 386+ BIOS image.
00:00:02.547840 PcBios: MPS table at 000e1300
00:00:02.549220 PcBios: fCheckShutdownStatusForSoftReset=true   fClearShutdownStatusOnHardReset=true 
00:00:02.561269 SUP: Loaded VBoxDDR0.r0 (C:\Program Files\Oracle\VirtualBox\VBoxDDR0.r0) at 0xfffff8048bbb0000 - ModuleInit at 0000000000000000 and ModuleTerm at 0000000000000000 using the native ring-0 loader
00:00:02.561282 SUP: windbg> .reload /f C:\Program Files\Oracle\VirtualBox\VBoxDDR0.r0=0xfffff8048bbb0000
00:00:02.562014 CPUM: SetGuestCpuIdFeature: Enabled xAPIC
00:00:02.562540 IOAPIC: Using implementation 2.0!
00:00:02.562660 PIT: mode=3 count=0x10000 (65536) - 18.20 Hz (ch=0)
00:00:02.570147 Shared Folders service loaded
00:00:02.573342 VGA: Using the 386+ BIOS image.
00:00:02.577614 DrvVD: Flushes will be ignored
00:00:02.577625 DrvVD: Async flushes will be passed to the disk
00:00:02.577855 VD: VDInit finished
00:00:02.579325 AIOMgr: Endpoint for file 'C:\Users\Alex\Downloads\prextimg\prextimg.vdi' (flags 000c0723) created successfully
00:00:02.581566 VD: Opening the disk took 3915447 ns
00:00:02.581675 AHCI: LUN#0: disk, PCHS=16383/16/63, total number of sectors 41943040
00:00:02.581696 AHCI: LUN#0: using async I/O
00:00:02.582015 AHCI#0: Reset the HBA
00:00:02.582248 PIIX3 ATA: LUN#0: no unit
00:00:02.582265 PIIX3 ATA: LUN#1: no unit
00:00:02.582316 DrvVD: Flushes will be ignored
00:00:02.582322 DrvVD: Async flushes will be passed to the disk
00:00:02.582429 PIIX3 ATA: LUN#2: CD/DVD, total number of sectors 0, passthrough disabled
00:00:02.582437 PIIX3 ATA: LUN#3: no unit
00:00:02.582501 PIIX3 ATA: Ctl#0: finished processing RESET
00:00:02.582522 PIIX3 ATA: Ctl#1: finished processing RESET
00:00:02.582640 E1000#0 Chip=82540EM LinkUpDelay=5000ms EthernetCRC=on GSO=enabled Itr=enabled ItrRx=enabled R0=enabled GC=enabled
00:00:02.597945 NAT: Guest address guess set to 10.0.2.15 by initialization
00:00:02.604661 NAT: DNS#0: 10.10.10.10
00:00:02.604674 NAT: DNS#1: 10.10.5.5
00:00:02.605268 Audio: Initializing DirectSound audio driver
00:00:02.605308 Audio: Using VBox 5.0.x audio code!
00:00:02.800817 DSound: Output: GUID: {DF7E66F7-D23B-47A8-80E4-D4CEDCB068A3} [Speakers (High Definition Audio Device)] (Module: {0.0.0.00000000}.{df7e66f7-d23b-47a8-80e4-d4cedcb068a3})
00:00:02.951962 DSound: Input: GUID: {879F1F56-B526-432A-8EE6-BB01A55ADAAE} [Microphone (High Definition Audio Device)] (Module: {0.0.1.00000000}.{879f1f56-b526-432a-8ee6-bb01a55adaae})
00:00:02.951980 DSound: Found 1 host playback devices
00:00:02.951985 DSound: Found 1 host capturing devices
00:00:02.952367 Audio: Host audio backend supports 1 output streams and 1 input streams at once
00:00:02.952402 Audio: Initializing VRDE driver
00:00:02.952408 Audio: Using VBox 5.0.x audio code!
00:00:02.952414 Audio: Host audio backend supports 1 output streams and 2 input streams at once
00:00:02.952478 AC97: Reset
00:00:02.952734 DSound: Guest "Line In" is using host device with GUID: {Default device}
00:00:02.964012 Audio: Skipping to create input stream "[LUN#0] ac97.mc", as the host audio backend reached its maximum of concurrent audio input streams
00:00:02.971004 VUSB: Attached 'HidMouse' to port 1
00:00:02.971094 PGM: The CPU physical address width is 39 bits
00:00:02.971100 PGM: PGMR3InitFinalize: 4 MB PSE mask 0000007fffffffff
00:00:02.971280 TM: TMR3InitFinalize: fTSCModeSwitchAllowed=true 
00:00:02.993151 VMM: Thread-context hooks unavailable
00:00:02.993874 HM: Using VT-x implementation 2.0
00:00:02.993875 HM: Host CR4                        = 0x1506f8
00:00:02.993877 HM: Host EFER                       = 0xd01
00:00:02.993878 HM: MSR_IA32_SMM_MONITOR_CTL        = 0x0
00:00:02.993878 HM: MSR_IA32_FEATURE_CONTROL        = 0x5
00:00:02.993879 HM: MSR_IA32_VMX_BASIC_INFO         = 0xda040000000012
00:00:02.993880 HM:   VMCS id                         = 0x12
00:00:02.993880 HM:   VMCS size                       = 1024 bytes
00:00:02.993881 HM:   VMCS physical address limit     = None
00:00:02.993882 HM:   VMCS memory type                = 0x6
00:00:02.993882 HM:   Dual-monitor treatment support  = true 
00:00:02.993883 HM:   OUTS & INS instruction-info     = true 
00:00:02.993884 HM: Max resume loops                = 1024
00:00:02.993884 HM: MSR_IA32_VMX_PINBASED_CTLS      = 0x7f00000016
00:00:02.993885 HM:   EXT_INT_EXIT
00:00:02.993885 HM:   NMI_EXIT
00:00:02.993886 HM:   VIRTUAL_NMI
00:00:02.993886 HM:   PREEMPT_TIMER
00:00:02.993887 HM:   POSTED_INTR (must be cleared)
00:00:02.993887 HM: MSR_IA32_VMX_PROCBASED_CTLS     = 0xfff9fffe0401e172
00:00:02.993888 HM:   INT_WINDOW_EXIT
00:00:02.993888 HM:   USE_TSC_OFFSETTING
00:00:02.993889 HM:   HLT_EXIT
00:00:02.993889 HM:   INVLPG_EXIT
00:00:02.993889 HM:   MWAIT_EXIT
00:00:02.993890 HM:   RDPMC_EXIT
00:00:02.993890 HM:   RDTSC_EXIT
00:00:02.993890 HM:   CR3_LOAD_EXIT (must be set)
00:00:02.993891 HM:   CR3_STORE_EXIT (must be set)
00:00:02.993891 HM:   CR8_LOAD_EXIT
00:00:02.993891 HM:   CR8_STORE_EXIT
00:00:02.993892 HM:   USE_TPR_SHADOW
00:00:02.993892 HM:   NMI_WINDOW_EXIT
00:00:02.993893 HM:   MOV_DR_EXIT
00:00:02.993893 HM:   UNCOND_IO_EXIT
00:00:02.993893 HM:   USE_IO_BITMAPS
00:00:02.993894 HM:   MONITOR_TRAP_FLAG
00:00:02.993894 HM:   USE_MSR_BITMAPS
00:00:02.993894 HM:   MONITOR_EXIT
00:00:02.993895 HM:   PAUSE_EXIT
00:00:02.993895 HM:   USE_SECONDARY_EXEC_CTRL
00:00:02.993909 HM: MSR_IA32_VMX_PROCBASED_CTLS2    = 0x3cff00000000
00:00:02.993909 HM:   VIRT_APIC
00:00:02.993910 HM:   EPT
00:00:02.993910 HM:   DESCRIPTOR_TABLE_EXIT
00:00:02.993911 HM:   RDTSCP
00:00:02.993911 HM:   VIRT_X2APIC
00:00:02.993911 HM:   VPID
00:00:02.993912 HM:   WBINVD_EXIT
00:00:02.993912 HM:   UNRESTRICTED_GUEST
00:00:02.993926 HM:   APIC_REG_VIRT (must be cleared)
00:00:02.993926 HM:   VIRT_INTR_DELIVERY (must be cleared)
00:00:02.993927 HM:   PAUSE_LOOP_EXIT
00:00:02.993927 HM:   RDRAND_EXIT
00:00:02.993927 HM:   INVPCID
00:00:02.993928 HM:   VMFUNC
00:00:02.993928 HM:   VMCS_SHADOWING (must be cleared)
00:00:02.993928 HM:   ENCLS_EXIT (must be cleared)
00:00:02.993929 HM:   RDSEED_EXIT (must be cleared)
00:00:02.993929 HM:   PML (must be cleared)
00:00:02.993930 HM:   EPT_VE (must be cleared)
00:00:02.993930 HM:   CONCEAL_FROM_PT (must be cleared)
00:00:02.993930 HM:   XSAVES_XRSTORS (must be cleared)
00:00:02.993931 HM:   TSC_SCALING (must be cleared)
00:00:02.993931 HM: MSR_IA32_VMX_ENTRY_CTLS         = 0xffff000011ff
00:00:02.993932 HM:   LOAD_DEBUG (must be set)
00:00:02.993932 HM:   IA32E_MODE_GUEST
00:00:02.993933 HM:   ENTRY_SMM
00:00:02.993933 HM:   DEACTIVATE_DUALMON
00:00:02.993933 HM:   LOAD_GUEST_PERF_MSR
00:00:02.993934 HM:   LOAD_GUEST_PAT_MSR
00:00:02.993934 HM:   LOAD_GUEST_EFER_MSR
00:00:02.993934 HM: MSR_IA32_VMX_EXIT_CTLS          = 0x7fffff00036dff
00:00:02.993935 HM:   SAVE_DEBUG (must be set)
00:00:02.993936 HM:   HOST_ADDR_SPACE_SIZE
00:00:02.993936 HM:   LOAD_PERF_MSR
00:00:02.993936 HM:   ACK_EXT_INT
00:00:02.993937 HM:   SAVE_GUEST_PAT_MSR
00:00:02.993937 HM:   LOAD_HOST_PAT_MSR
00:00:02.993937 HM:   SAVE_GUEST_EFER_MSR
00:00:02.993938 HM:   LOAD_HOST_EFER_MSR
00:00:02.993938 HM:   SAVE_VMX_PREEMPT_TIMER
00:00:02.993938 HM: MSR_IA32_VMX_EPT_VPID_CAP       = 0xf0106334141
00:00:02.993939 HM:   RWX_X_ONLY
00:00:02.993940 HM:   PAGE_WALK_LENGTH_4
00:00:02.993940 HM:   EMT_UC
00:00:02.993940 HM:   EMT_WB
00:00:02.993941 HM:   PDE_2M
00:00:02.993941 HM:   PDPTE_1G
00:00:02.993941 HM:   INVEPT
00:00:02.993942 HM:   EPT_ACCESS_DIRTY
00:00:02.993942 HM:   INVEPT_SINGLE_CONTEXT
00:00:02.993942 HM:   INVEPT_ALL_CONTEXTS
00:00:02.993943 HM:   INVVPID
00:00:02.993943 HM:   INVVPID_INDIV_ADDR
00:00:02.993943 HM:   INVVPID_SINGLE_CONTEXT
00:00:02.993944 HM:   INVVPID_ALL_CONTEXTS
00:00:02.993944 HM:   INVVPID_SINGLE_CONTEXT_RETAIN_GLOBALS
00:00:02.993945 HM: MSR_IA32_VMX_MISC               = 0x300481e5
00:00:02.993945 HM:   PREEMPT_TSC_BIT                 = 0x5
00:00:02.993946 HM:   STORE_EFERLMA_VMEXIT            = true 
00:00:02.993946 HM:   ACTIVITY_STATES                 = 0x7
00:00:02.993947 HM:   CR3_TARGET                      = 0x4
00:00:02.993947 HM:   MAX_MSR                         = 512
00:00:02.993948 HM:   RDMSR_SMBASE_MSR_SMM            = true 
00:00:02.993948 HM:   SMM_MONITOR_CTL_B2              = true 
00:00:02.993949 HM:   VMWRITE_VMEXIT_INFO             = true 
00:00:02.993949 HM:   MSEG_ID                         = 0x0
00:00:02.993950 HM: MSR_IA32_VMX_CR0_FIXED0         = 0x80000021
00:00:02.993951 HM: MSR_IA32_VMX_CR0_FIXED1         = 0xffffffff
00:00:02.993951 HM: MSR_IA32_VMX_CR4_FIXED0         = 0x2000
00:00:02.993952 HM: MSR_IA32_VMX_CR4_FIXED1         = 0x1727ff
00:00:02.993953 HM: MSR_IA32_VMX_VMCS_ENUM          = 0x2a
00:00:02.993953 HM:   HIGHEST_INDEX                   = 0x15
00:00:02.993954 HM: MSR_IA32_VMX_VMFUNC             = 0x1
00:00:02.993954 HM:   EPTP_SWITCHING
00:00:02.993954 HM: APIC-access page physaddr       = 0x00000000cb416000
00:00:02.993955 HM: VCPU  0: MSR bitmap physaddr    = 0x00000000cb412000
00:00:02.993956 HM: VCPU  0: VMCS physaddr          = 0x00000000cb414000
00:00:02.993957 HM: Guest support: 32-bit and 64-bit
00:00:02.993962 HM: Supports VMCS EFER fields       = true 
00:00:02.993962 HM: Enabled VMX
00:00:02.993964 CPUM: SetGuestCpuIdFeature: Enabled SYSENTER/EXIT
00:00:02.993965 CPUM: SetGuestCpuIdFeature: Enabled PAE
00:00:02.993966 CPUM: SetGuestCpuIdFeature: Enabled LONG MODE
00:00:02.993966 CPUM: SetGuestCpuIdFeature: Enabled SYSCALL/RET
00:00:02.993967 CPUM: SetGuestCpuIdFeature: Enabled LAHF/SAHF
00:00:02.993967 CPUM: SetGuestCpuIdFeature: Enabled NX
00:00:02.993967 HM: Enabled nested paging
00:00:02.993968 HM:   EPT flush type                = VMXFLUSHEPT_SINGLE_CONTEXT
00:00:02.993968 HM: Enabled unrestricted guest execution
00:00:02.993969 HM: Enabled VPID
00:00:02.993969 HM:   VPID flush type               = VMXFLUSHVPID_SINGLE_CONTEXT
00:00:02.993970 HM: Enabled VMX-preemption timer (cPreemptTimerShift=5)
00:00:02.993970 HM: VT-x/AMD-V init method: LOCAL
00:00:02.993986 CPUM: VCPU  0: Cached APIC base MSR = 0xfee00900
00:00:02.993996 VMM: fUsePeriodicPreemptionTimers=false
00:00:02.994042 CPUM: Logical host processors: 8 present, 8 max, 8 online, online mask: 00000000000000ff
00:00:02.994044 CPUM: Physical host cores: 4
00:00:02.994044 ************************* CPUID dump ************************
00:00:02.994076          Raw Standard CPUID Leaves
00:00:02.994076      Leaf/sub-leaf  eax      ebx      ecx      edx
00:00:02.994091 Gst: 00000000/0000  0000000d 756e6547 6c65746e 49656e69
00:00:02.994092 Hst:                0000000d 756e6547 6c65746e 49656e69
00:00:02.994093 Gst: 00000001/0000  000306c3 00000800 d6d8220b 078bfbff
00:00:02.994095 Hst:                000306c3 06100800 7ffafbbf bfebfbff
00:00:02.994096 Gst: 00000002/0000  76036301 00f0b5ff 00000000 00c10000
00:00:02.994097 Hst:                76036301 00f0b5ff 00000000 00c10000
00:00:02.994098 Gst: 00000003/0000  00000000 00000000 00000000 00000000
00:00:02.994098 Hst:                00000000 00000000 00000000 00000000
00:00:02.994099 Gst: 00000004/0000  00000121 01c0003f 0000003f 00000000
00:00:02.994100 Hst:                1c004121 01c0003f 0000003f 00000000
00:00:02.994101 Gst: 00000004/0001  00000122 01c0003f 0000003f 00000000
00:00:02.994102 Hst:                1c004122 01c0003f 0000003f 00000000
00:00:02.994103 Gst: 00000004/0002  00000143 01c0003f 000001ff 00000000
00:00:02.994104 Hst:                1c004143 01c0003f 000001ff 00000000
00:00:02.994105 Gst: 00000004/0003  00000163 02c0003f 00001fff 00000006
00:00:02.994105 Hst:                1c03c163 02c0003f 00001fff 00000006
00:00:02.994106 Gst: 00000004/0004  00000000 00000000 00000000 00000000
00:00:02.994107 Hst:                00000000 00000000 00000000 00000000
00:00:02.994108 Gst: 00000005/0000  00000040 00000040 00000000 00000000
00:00:02.994109 Hst:                00000040 00000040 00000003 00042120
00:00:02.994110 Gst: 00000006/0000  00000000 00000000 00000000 00000000
00:00:02.994110 Hst:                00000077 00000002 00000009 00000000
00:00:02.994111 Gst: 00000007/0000  00000000 00002000 00000000 00000000
00:00:02.994112 Hst:                00000000 000027ab 00000000 00000000
00:00:02.994113 Gst: 00000007/0001  00000000 00000000 00000000 00000000
00:00:02.994113 Hst:                00000000 00000000 00000000 00000000
00:00:02.994114 Gst: 00000008/0000  00000000 00000000 00000000 00000000
00:00:02.994115 Hst:                00000000 00000000 00000000 00000000
00:00:02.994115 Gst: 00000009/0000  00000000 00000000 00000000 00000000
00:00:02.994116 Hst:                00000000 00000000 00000000 00000000
00:00:02.994117 Gst: 0000000a/0000  00000000 00000000 00000000 00000000
00:00:02.994117 Hst:                07300403 00000000 00000000 00000603
00:00:02.994118 Gst: 0000000b/0000  00000000 00000001 00000100 00000000
00:00:02.994119 Hst:                00000001 00000002 00000100 00000006
00:00:02.994119 Gst: 0000000b/0001  00000001 00000001 00000201 00000000
00:00:02.994120 Hst:                00000004 00000008 00000201 00000006
00:00:02.994121 Gst: 0000000b/0002  00000000 00000000 00000002 00000000
00:00:02.994122 Hst:                00000000 00000000 00000002 00000006
00:00:02.994122 Gst: 0000000c/0000  00000000 00000000 00000000 00000000
00:00:02.994123 Hst:                00000000 00000000 00000000 00000000
00:00:02.994124 Gst: 0000000d/0000  00000007 00000340 00000340 00000000
00:00:02.994124 Hst:                00000007 00000340 00000340 00000000
00:00:02.994125 Gst: 0000000d/0001  00000000 00000000 00000000 00000000
00:00:02.994126 Hst:                00000001 00000000 00000000 00000000
00:00:02.994126 Gst: 0000000d/0002  00000100 00000240 00000000 00000000
00:00:02.994127 Hst:                00000100 00000240 00000000 00000000
00:00:02.994128 Gst: 0000000d/0003  00000000 00000000 00000000 00000000
00:00:02.994128 Hst:                00000000 00000000 00000000 00000000
00:00:02.994143                                Name: GenuineIntel
00:00:02.994144                            Supports: 0x00000000-0x0000000d
00:00:02.994173                              Family:  6 	Extended: 0 	Effective: 6
00:00:02.994174                               Model: 12 	Extended: 3 	Effective: 60
00:00:02.994175                            Stepping: 3
00:00:02.994176                                Type: 0 (primary)
00:00:02.994177                             APIC ID: 0x00
00:00:02.994178                        Logical CPUs: 0
00:00:02.994178                        CLFLUSH Size: 8
00:00:02.994179                            Brand ID: 0x00
00:00:02.994179 Features
00:00:02.994180   Mnemonic - Description                                  = guest (host)
00:00:02.994180   FPU - x87 FPU on Chip                                   = 1 (1)
00:00:02.994182   VME - Virtual 8086 Mode Enhancements                    = 1 (1)
00:00:02.994183   DE - Debugging extensions                               = 1 (1)
00:00:02.994184   PSE - Page Size Extension                               = 1 (1)
00:00:02.994185   TSC - Time Stamp Counter                                = 1 (1)
00:00:02.994186   MSR - Model Specific Registers                          = 1 (1)
00:00:02.994186   PAE - Physical Address Extension                        = 1 (1)
00:00:02.994187   MCE - Machine Check Exception                           = 1 (1)
00:00:02.994188   CX8 - CMPXCHG8B instruction                             = 1 (1)
00:00:02.994189   APIC - APIC On-Chip                                     = 1 (1)
00:00:02.994190   SEP - SYSENTER and SYSEXIT Present                      = 1 (1)
00:00:02.994191   MTRR - Memory Type Range Registers                      = 1 (1)
00:00:02.994192   PGE - PTE Global Bit                                    = 1 (1)
00:00:02.994193   MCA - Machine Check Architecture                        = 1 (1)
00:00:02.994194   CMOV - Conditional Move instructions                    = 1 (1)
00:00:02.994194   PAT - Page Attribute Table                              = 1 (1)
00:00:02.994195   PSE-36 - 36-bit Page Size Extension                     = 1 (1)
00:00:02.994196   PSN - Processor Serial Number                           = 0 (0)
00:00:02.994197   CLFSH - CLFLUSH instruction                             = 1 (1)
00:00:02.994198   DS - Debug Store                                        = 0 (1)
00:00:02.994199   ACPI - Thermal Mon. & Soft. Clock Ctrl.                 = 0 (1)
00:00:02.994200   MMX - Intel MMX Technology                              = 1 (1)
00:00:02.994201   FXSR - FXSAVE and FXRSTOR instructions                  = 1 (1)
00:00:02.994202   SSE - SSE support                                       = 1 (1)
00:00:02.994203   SSE2 - SSE2 support                                     = 1 (1)
00:00:02.994204   SS - Self Snoop                                         = 0 (1)
00:00:02.994205   HTT - Hyper-Threading Technology                        = 0 (1)
00:00:02.994205   TM - Therm. Monitor                                     = 0 (1)
00:00:02.994206   PBE - Pending Break Enabled                             = 0 (1)
00:00:02.994207   SSE3 - SSE3 support                                     = 1 (1)
00:00:02.994208   PCLMUL - PCLMULQDQ support (for AES-GCM)                = 1 (1)
00:00:02.994209   DTES64 - DS Area 64-bit Layout                          = 0 (1)
00:00:02.994210   MONITOR - MONITOR/MWAIT instructions                    = 1 (1)
00:00:02.994211   CPL-DS - CPL Qualified Debug Store                      = 0 (1)
00:00:02.994212   VMX - Virtual Machine Extensions                        = 0 (1)
00:00:02.994212   SMX - Safer Mode Extensions                             = 0 (0)
00:00:02.994213   EST - Enhanced SpeedStep Technology                     = 0 (1)
00:00:02.994214   TM2 - Terminal Monitor 2                                = 0 (1)
00:00:02.994215   SSSE3 - Supplemental Streaming SIMD Extensions 3        = 1 (1)
00:00:02.994216   CNTX-ID - L1 Context ID                                 = 0 (0)
00:00:02.994217   SDBG - Silicon Debug interface                          = 0 (1)
00:00:02.994218   FMA - Fused Multiply Add extensions                     = 0 (1)
00:00:02.994218   CX16 - CMPXCHG16B instruction                           = 1 (1)
00:00:02.994219   TPRUPDATE - xTPR Update Control                         = 0 (1)
00:00:02.994220   PDCM - Perf/Debug Capability MSR                        = 0 (1)
00:00:02.994221   PCID - Process Context Identifiers                      = 0 (1)
00:00:02.994222   DCA - Direct Cache Access                               = 0 (0)
00:00:02.994223   SSE4_1 - SSE4_1 support                                 = 1 (1)
00:00:02.994224   SSE4_2 - SSE4_2 support                                 = 1 (1)
00:00:02.994225   X2APIC - x2APIC support                                 = 0 (1)
00:00:02.994226   MOVBE - MOVBE instruction                               = 1 (1)
00:00:02.994227   POPCNT - POPCNT instruction                             = 1 (1)
00:00:02.994227   TSCDEADL - Time Stamp Counter Deadline                  = 0 (1)
00:00:02.994228   AES - AES instructions                                  = 1 (1)
00:00:02.994229   XSAVE - XSAVE instruction                               = 1 (1)
00:00:02.994230   OSXSAVE - OSXSAVE instruction                           = 0 (1)
00:00:02.994231   AVX - AVX support                                       = 1 (1)
00:00:02.994232   F16C - 16-bit floating point conversion instructions    = 0 (1)
00:00:02.994233   RDRAND - RDRAND instruction                             = 1 (1)
00:00:02.994233   HVP - Hypervisor Present (we're a guest)                = 1 (0)
00:00:02.994234 Structured Extended Feature Flags Enumeration (leaf 7):
00:00:02.994235   Mnemonic - Description                                  = guest (host)
00:00:02.994250   FSGSBASE - RDFSBASE/RDGSBASE/WRFSBASE/WRGSBASE instr.   = 0 (1)
00:00:02.994250   TSCADJUST - Supports MSR_IA32_TSC_ADJUST                = 0 (1)
00:00:02.994251   SGX - Supports Software Guard Extensions                = 0 (0)
00:00:02.994252   BMI1 - Advanced Bit Manipulation extension 1            = 0 (1)
00:00:02.994253   HLE - Hardware Lock Elision                             = 0 (0)
00:00:02.994254   AVX2 - Advanced Vector Extensions 2                     = 0 (1)
00:00:02.994254   FDP_EXCPTN_ONLY - FPU DP only updated on exceptions     = 0 (0)
00:00:02.994255   SMEP - Supervisor Mode Execution Prevention             = 0 (1)
00:00:02.994256   BMI2 - Advanced Bit Manipulation extension 2            = 0 (1)
00:00:02.994257   ERMS - Enhanced REP MOVSB/STOSB instructions            = 0 (1)
00:00:02.994258   INVPCID - INVPCID instruction                           = 0 (1)
00:00:02.994258   RTM - Restricted Transactional Memory                   = 0 (0)
00:00:02.994259   PQM - Platform Quality of Service Monitoring            = 0 (0)
00:00:02.994260   DEPFPU_CS_DS - Deprecates FPU CS, FPU DS values if set  = 1 (1)
00:00:02.994261   MPE - Intel Memory Protection Extensions                = 0 (0)
00:00:02.994262   PQE - Platform Quality of Service Enforcement           = 0 (0)
00:00:02.994262   AVX512F - AVX512 Foundation instructions                = 0 (0)
00:00:02.994263   RDSEED - RDSEED instruction                             = 0 (0)
00:00:02.994264   ADX - ADCX/ADOX instructions                            = 0 (0)
00:00:02.994265   SMAP - Supervisor Mode Access Prevention                = 0 (0)
00:00:02.994266   CLFLUSHOPT - CLFLUSHOPT (Cache Line Flush) instruction  = 0 (0)
00:00:02.994267   INTEL_PT - Intel Processor Trace                        = 0 (0)
00:00:02.994267   AVX512PF - AVX512 Prefetch instructions                 = 0 (0)
00:00:02.994268   AVX512ER - AVX512 Exponential & Reciprocal instructions = 0 (0)
00:00:02.994269   AVX512CD - AVX512 Conflict Detection instructions       = 0 (0)
00:00:02.994270   SHA - Secure Hash Algorithm extensions                  = 0 (0)
00:00:02.994271   PREFETCHWT1 - PREFETCHWT1 instruction                   = 0 (0)
00:00:02.994271   PKU - Protection Key for Usermode pages                 = 0 (0)
00:00:02.994272   OSPKU - CR4.PKU mirror                                  = 0 (0)
00:00:02.994273 Processor Extended State Enumeration (leaf 0xd):
00:00:02.994274    XSAVE area cur/max size by XCR0, guest: 0x340/0x340
00:00:02.994275     XSAVE area cur/max size by XCR0, host: 0x340/0x340
00:00:02.994275                    Valid XCR0 bits, guest: 0x00000000`00000007 ( x87 SSE YMM_Hi128 )
00:00:02.994277                     Valid XCR0 bits, host: 0x00000000`00000007 ( x87 SSE YMM_Hi128 )
00:00:02.994279                     XSAVE features, guest:
00:00:02.994280                      XSAVE features, host: XSAVEOPT
00:00:02.994280       XSAVE area cur size XCR0|XSS, guest: 0x0
00:00:02.994281        XSAVE area cur size XCR0|XSS, host: 0x0
00:00:02.994282                Valid IA32_XSS bits, guest: 0x00000000`00000000
00:00:02.994282                 Valid IA32_XSS bits, host: 0x00000000`00000000
00:00:02.994283   State #2, guest: off=0x0240, cb=0x0100 IA32_XSS-bit -- YMM_Hi128
00:00:02.994285   State #2, host:  off=0x0240, cb=0x0100 IA32_XSS-bit -- YMM_Hi128
00:00:02.994293          Raw Hypervisor CPUID Leaves
00:00:02.994293      Leaf/sub-leaf  eax      ebx      ecx      edx
00:00:02.994294 Gst: 40000000/0000  40000001 4b4d564b 564b4d56 0000004d
00:00:02.994295 Hst:                00000007 00000340 00000340 00000000
00:00:02.994296 Gst: 40000001/0000  01000089 00000000 00000000 00000000
00:00:02.994297 Hst:                00000007 00000340 00000340 00000000
00:00:02.994298          Raw Extended CPUID Leaves
00:00:02.994298      Leaf/sub-leaf  eax      ebx      ecx      edx
00:00:02.994298 Gst: 80000000/0000  80000008 00000000 00000000 00000000
00:00:02.994299 Hst:                80000008 00000000 00000000 00000000
00:00:02.994300 Gst: 80000001/0000  00000000 00000000 00000021 28100800
00:00:02.994301 Hst:                00000000 00000000 00000021 2c100800
00:00:02.994302 Gst: 80000002/0000  65746e49 2952286c 726f4320 4d542865
00:00:02.994303 Hst:                65746e49 2952286c 726f4320 4d542865
00:00:02.994305 Gst: 80000003/0000  37692029 3037342d 20514832 20555043
00:00:02.994306 Hst:                37692029 3037342d 20514832 20555043
00:00:02.994307 Gst: 80000004/0000  2e322040 48473032 0000007a 00000000
00:00:02.994308 Hst:                2e322040 48473032 0000007a 00000000
00:00:02.994309 Gst: 80000005/0000  00000000 00000000 00000000 00000000
00:00:02.994310 Hst:                00000000 00000000 00000000 00000000
00:00:02.994310 Gst: 80000006/0000  00000000 00000000 01006040 00000000
00:00:02.994311 Hst:                00000000 00000000 01006040 00000000
00:00:02.994312 Gst: 80000007/0000  00000000 00000000 00000000 00000100
00:00:02.994313 Hst:                00000000 00000000 00000000 00000100
00:00:02.994313 Gst: 80000008/0000  00003027 00000000 00000000 00000000
00:00:02.994314 Hst:                00003027 00000000 00000000 00000000
00:00:02.994315 Ext Name:                        
00:00:02.994316 Ext Supports:                    0x80000000-0x80000008
00:00:02.994330 Family:                          0  	Extended: 0 	Effective: 0
00:00:02.994330 Model:                           0  	Extended: 0 	Effective: 0
00:00:02.994331 Stepping:                        0
00:00:02.994331 Brand ID:                        0x000
00:00:02.994332 Ext Features
00:00:02.994332   Mnemonic - Description                                  = guest (host)
00:00:02.994333   FPU - x87 FPU on Chip                                   = 0 (0)
00:00:02.994334   VME - Virtual 8086 Mode Enhancements                    = 0 (0)
00:00:02.994335   DE - Debugging extensions                               = 0 (0)
00:00:02.994335   PSE - Page Size Extension                               = 0 (0)
00:00:02.994336   TSC - Time Stamp Counter                                = 0 (0)
00:00:02.994337   MSR - K86 Model Specific Registers                      = 0 (0)
00:00:02.994338   PAE - Physical Address Extension                        = 0 (0)
00:00:02.994339   MCE - Machine Check Exception                           = 0 (0)
00:00:02.994340   CX8 - CMPXCHG8B instruction                             = 0 (0)
00:00:02.994341   APIC - APIC On-Chip                                     = 0 (0)
00:00:02.994342   SEP - SYSCALL/SYSRET                                    = 1 (1)
00:00:02.994342   MTRR - Memory Type Range Registers                      = 0 (0)
00:00:02.994343   PGE - PTE Global Bit                                    = 0 (0)
00:00:02.994344   MCA - Machine Check Architecture                        = 0 (0)
00:00:02.994345   CMOV - Conditional Move instructions                    = 0 (0)
00:00:02.994346   PAT - Page Attribute Table                              = 0 (0)
00:00:02.994347   PSE-36 - 36-bit Page Size Extension                     = 0 (0)
00:00:02.994347   NX - No-Execute/Execute-Disable                         = 1 (1)
00:00:02.994348   AXMMX - AMD Extensions to MMX instructions              = 0 (0)
00:00:02.994349   MMX - Intel MMX Technology                              = 0 (0)
00:00:02.994350   FXSR - FXSAVE and FXRSTOR Instructions                  = 0 (0)
00:00:02.994351   FFXSR - AMD fast FXSAVE and FXRSTOR instructions        = 0 (0)
00:00:02.994351   Page1GB - 1 GB large page                               = 0 (1)
00:00:02.994352   RDTSCP - RDTSCP instruction                             = 1 (1)
00:00:02.994353   LM - AMD64 Long Mode                                    = 1 (1)
00:00:02.994354   3DNOWEXT - AMD Extensions to 3DNow                      = 0 (0)
00:00:02.994355   3DNOW - AMD 3DNow                                       = 0 (0)
00:00:02.994356   LahfSahf - LAHF/SAHF support in 64-bit mode             = 1 (1)
00:00:02.994357   CmpLegacy - Core multi-processing legacy mode           = 0 (0)
00:00:02.994358   SVM - AMD VM extensions                                 = 0 (0)
00:00:02.994358   EXTAPIC - AMD Extended APIC registers                   = 0 (0)
00:00:02.994359   CR8L - AMD LOCK MOV CR0 means MOV CR8                   = 0 (0)
00:00:02.994360   ABM - AMD Advanced Bit Manipulation                     = 1 (1)
00:00:02.994361   SSE4A - SSE4A instructions                              = 0 (0)
00:00:02.994362   MISALIGNSSE - AMD Misaligned SSE mode                   = 0 (0)
00:00:02.994363   3DNOWPRF - AMD PREFETCH and PREFETCHW instructions      = 0 (0)
00:00:02.994363   OSVW - AMD OS Visible Workaround                        = 0 (0)
00:00:02.994364   IBS - Instruct Based Sampling                           = 0 (0)
00:00:02.994365   XOP - Extended Operation support                        = 0 (0)
00:00:02.994366   SKINIT - SKINIT, STGI, and DEV support                  = 0 (0)
00:00:02.994367   WDT - AMD Watchdog Timer support                        = 0 (0)
00:00:02.994367   LWP - Lightweight Profiling support                     = 0 (0)
00:00:02.994368   FMA4 - Four operand FMA instruction support             = 0 (0)
00:00:02.994369   NodeId - NodeId in MSR C001_100C                        = 0 (0)
00:00:02.994370   TBM - Trailing Bit Manipulation instructions            = 0 (0)
00:00:02.994371   TOPOEXT - Topology Extensions                           = 0 (0)
00:00:02.994372 Full Name:                       "Intel(R) Core(TM) i7-4702HQ CPU @ 2.20GHz"
00:00:02.994372 TLB 2/4M Instr/Uni:              res0     0 entries
00:00:02.994373 TLB 2/4M Data:                   res0     0 entries
00:00:02.994374 TLB 4K Instr/Uni:                res0     0 entries
00:00:02.994374 TLB 4K Data:                     res0     0 entries
00:00:02.994375 L1 Instr Cache Line Size:        0 bytes
00:00:02.994375 L1 Instr Cache Lines Per Tag:    0
00:00:02.994375 L1 Instr Cache Associativity:    res0  
00:00:02.994376 L1 Instr Cache Size:             0 KB
00:00:02.994376 L1 Data Cache Line Size:         0 bytes
00:00:02.994377 L1 Data Cache Lines Per Tag:     0
00:00:02.994377 L1 Data Cache Associativity:     res0  
00:00:02.994377 L1 Data Cache Size:              0 KB
00:00:02.994378 L2 TLB 2/4M Instr/Uni:           off       0 entries
00:00:02.994378 L2 TLB 2/4M Data:                off       0 entries
00:00:02.994379 L2 TLB 4K Instr/Uni:             off       0 entries
00:00:02.994379 L2 TLB 4K Data:                  off       0 entries
00:00:02.994380 L2 Cache Line Size:              0 bytes
00:00:02.994380 L2 Cache Lines Per Tag:          0
00:00:02.994380 L2 Cache Associativity:          off   
00:00:02.994381 L2 Cache Size:                   0 KB
00:00:02.994381 APM Features:                    TscInvariant
00:00:02.994382 Host Invariant-TSC support:      true 
00:00:02.994383 Physical Address Width:          39 bits
00:00:02.994383 Virtual Address Width:           48 bits
00:00:02.994384 Guest Physical Address Width:    0 bits
00:00:02.994384 Physical Core Count:             1
00:00:02.994385 
00:00:02.994385 ******************** End of CPUID dump **********************
00:00:03.015548 PcBios: SATA LUN#0 LCHS=1024/255/63
00:00:03.015577 APIC: fPostedIntrsEnabled=false fVirtApicRegsEnabled=false fSupportsTscDeadline=false
00:00:03.015585 VMEmt: Halt method global1 (5)
00:00:03.015605 VMEmt: HaltedGlobal1 config: cNsSpinBlockThresholdCfg=50000
00:00:03.015622 Changing the VM state from 'CREATING' to 'CREATED'
00:00:03.017094 Changing the VM state from 'CREATED' to 'POWERING_ON'
00:00:03.017140 AIOMgr: Endpoints without assigned bandwidth groups:
00:00:03.017143 AIOMgr:     C:\Users\Alex\Downloads\prextimg\prextimg.vdi
00:00:03.017207 Changing the VM state from 'POWERING_ON' to 'RUNNING'
00:00:03.017218 Console: Machine state changed to 'Running'
00:00:03.020059 VMMDev: Guest Log: BIOS: VirtualBox 5.1.14
00:00:03.021358 PIT: mode=2 count=0x10000 (65536) - 18.20 Hz (ch=0)
00:00:03.027448 ERROR [COM]: aRC=VBOX_E_IPRT_ERROR (0x80bb0005) aIID={02326f63-bcb3-4481-96e0-30d1c2ee97f6} aComponent={DisplayWrap} aText={Could not take a screenshot (VERR_NOT_SUPPORTED)}, preserve=false aResultDetail=0
00:00:03.032061 PIIX3 ATA: Ctl#1: RESET, DevSel=0 AIOIf=0 CmdIf0=0x00 (-1 usec ago) CmdIf1=0x00 (-1 usec ago)
00:00:03.032101 PIIX3 ATA: Ctl#1: finished processing RESET
00:00:03.032974 ERROR [COM]: aRC=VBOX_E_IPRT_ERROR (0x80bb0005) aIID={02326f63-bcb3-4481-96e0-30d1c2ee97f6} aComponent={DisplayWrap} aText={Could not take a screenshot (VERR_NOT_SUPPORTED)}, preserve=false aResultDetail=0
00:00:03.037597 Display::handleDisplayResize: uScreenId=0 pvVRAM=0000000000000000 w=720 h=400 bpp=0 cbLine=0x0 flags=0x1
00:00:03.037662 GUI: UIFrameBufferPrivate::NotifyChange: Screen=0, Origin=0x0, Size=720x400, Sending to async-handler
00:00:03.037712 GUI: UIMachineView::sltHandleNotifyChange: Screen=0, Size=720x400
00:00:03.037724 GUI: UIFrameBufferPrivate::handleNotifyChange: Size=720x400
00:00:03.037728 GUI: UIFrameBufferPrivate::performResize: Size=720x400, Directly using source bitmap content
00:00:03.040474 AHCI#0: Reset the HBA
00:00:03.040537 AHCI#0: Port 0 reset
00:00:03.041247 VMMDev: Guest Log: BIOS: AHCI 0-P#0: PCHS=16383/16/63 LCHS=1024/255/63 0x0000000002800000 sectors
00:00:03.042057 PIT: mode=2 count=0x48d3 (18643) - 64.00 Hz (ch=0)
00:00:03.057756 Display::handleDisplayResize: uScreenId=0 pvVRAM=000000000a570000 w=640 h=480 bpp=32 cbLine=0xA00 flags=0x1
00:00:03.057800 GUI: UIFrameBufferPrivate::NotifyChange: Screen=0, Origin=0x0, Size=640x480, Sending to async-handler
00:00:03.057868 GUI: UIMachineView::sltHandleNotifyChange: Screen=0, Size=640x480
00:00:03.057879 GUI: UIFrameBufferPrivate::handleNotifyChange: Size=640x480
00:00:03.058010 GUI: UIFrameBufferPrivate::performResize: Size=640x480, Directly using source bitmap content
00:00:03.204729 GUI: UIMachineViewNormal::resendSizeHint: Restoring guest size-hint for screen 0 to 1600x795
00:00:03.204776 VMMDev: SetVideoModeHint: Got a video mode hint (1600x795x32)@(0x0),(1;0) at 0
00:00:03.205592 GUI: 2D video acceleration is disabled
00:00:03.205602 GUI: HID LEDs sync is enabled
00:00:03.206124 GUI: UIMachineLogicNormal::sltCheckForRequestedVisualStateType: Requested-state=0, Machine-state=5
00:00:05.519069 PIT: mode=2 count=0x10000 (65536) - 18.20 Hz (ch=0)
00:00:05.519285 VMMDev: Guest Log: BIOS: Boot : bseqnr=1, bootseq=0231
00:00:05.519448 VMMDev: Guest Log: BIOS: Boot from Floppy 0 failed
00:00:05.519625 VMMDev: Guest Log: BIOS: Boot : bseqnr=2, bootseq=0023
00:00:05.520180 VMMDev: Guest Log: BIOS: CDROM boot failure code : 0003
00:00:05.520329 VMMDev: Guest Log: BIOS: Boot from CD-ROM failed
00:00:05.520506 VMMDev: Guest Log: BIOS: Boot : bseqnr=3, bootseq=0002
00:00:05.521353 VMMDev: Guest Log: BIOS: Booting from Hard Disk...
00:00:05.530687 Display::handleDisplayResize: uScreenId=0 pvVRAM=0000000000000000 w=720 h=400 bpp=0 cbLine=0x0 flags=0x1
00:00:05.530750 GUI: UIFrameBufferPrivate::NotifyChange: Screen=0, Origin=0x0, Size=720x400, Sending to async-handler
00:00:05.530821 GUI: UIMachineView::sltHandleNotifyChange: Screen=0, Size=720x400
00:00:05.530832 GUI: UIFrameBufferPrivate::handleNotifyChange: Size=720x400
00:00:05.530849 GUI: UIFrameBufferPrivate::performResize: Size=720x400, Directly using source bitmap content
00:00:05.818669 Display::handleDisplayResize: uScreenId=0 pvVRAM=000000000a570000 w=640 h=480 bpp=32 cbLine=0xA00 flags=0x1
00:00:05.818714 GUI: UIFrameBufferPrivate::NotifyChange: Screen=0, Origin=0x0, Size=640x480, Sending to async-handler
00:00:05.818773 GUI: UIMachineView::sltHandleNotifyChange: Screen=0, Size=640x480
00:00:05.818783 GUI: UIFrameBufferPrivate::handleNotifyChange: Size=640x480
00:00:05.818924 GUI: UIFrameBufferPrivate::performResize: Size=640x480, Directly using source bitmap content
00:00:05.839094 Display::handleDisplayResize: uScreenId=0 pvVRAM=000000000a69c000 w=640 h=480 bpp=32 cbLine=0xA00 flags=0x1
00:00:05.839138 GUI: UIFrameBufferPrivate::NotifyChange: Screen=0, Origin=0x0, Size=640x480, Sending to async-handler
00:00:05.839190 GUI: UIMachineView::sltHandleNotifyChange: Screen=0, Size=640x480
00:00:05.839201 GUI: UIFrameBufferPrivate::handleNotifyChange: Size=640x480
00:00:05.839216 GUI: UIFrameBufferPrivate::performResize: Size=640x480, Directly using source bitmap content
00:00:06.736207 Display::handleDisplayResize: uScreenId=0 pvVRAM=0000000000000000 w=720 h=400 bpp=0 cbLine=0x0 flags=0x1
00:00:06.736278 GUI: UIFrameBufferPrivate::NotifyChange: Screen=0, Origin=0x0, Size=720x400, Sending to async-handler
00:00:06.736334 GUI: UIMachineView::sltHandleNotifyChange: Screen=0, Size=720x400
00:00:06.736347 GUI: UIFrameBufferPrivate::handleNotifyChange: Size=720x400
00:00:06.736364 GUI: UIFrameBufferPrivate::performResize: Size=720x400, Directly using source bitmap content
00:00:06.850391 GIM: KVM: VCPU  0: Enabled system-time struct. at 0x000000007ffe3000 - u32TscScale=0xe943dd5e i8TscShift=-1 uVersion=2 fFlags=0x1 uTsc=0x1f566f44b uVirtNanoTS=0xe47644db
00:00:06.850412 TM: Switching TSC mode from 'Dynamic' to 'RealTscOffset'
00:00:06.876347 GIM: KVM: Enabled wall-clock struct. at 0x0000000002103128 - u32Sec=1492018733 u32Nano=498288919 uVersion=2
00:00:06.894803 PIT: mode=2 count=0x12a5 (4773) - 249.98 Hz (ch=0)
00:00:07.075004 PIT: mode=0 count=0x10000 (65536) - 18.20 Hz (ch=0)
00:00:07.147739 OHCI: Software reset
00:00:07.689812 PIIX3 ATA: Ctl#0: RESET, DevSel=0 AIOIf=0 CmdIf0=0x00 (-1 usec ago) CmdIf1=0x00 (-1 usec ago)
00:00:07.689940 PIIX3 ATA: Ctl#0: finished processing RESET
00:00:07.690640 OHCI: USB Reset
00:00:07.690870 PIIX3 ATA: Ctl#1: RESET, DevSel=0 AIOIf=0 CmdIf0=0xa0 (-1 usec ago) CmdIf1=0x00 (-1 usec ago)
00:00:07.690961 PIIX3 ATA: Ctl#1: finished processing RESET
00:00:07.745575 OHCI: Software reset
00:00:07.745784 OHCI: USB Operational
00:00:08.273830 AHCI#0: Reset the HBA
00:00:08.276033 AHCI#0: Port 0 reset
00:00:10.271974 NAT: Link up
00:00:11.297250 AIOMgr: Async flushes not supported
00:00:13.109402 VMMDev: Guest Additions information report: Version 5.0.18 r106667 '5.0.18_Ubuntu'
00:00:13.109438 VMMDev: Guest Additions information report: Interface = 0x00010004 osType = 0x00053100 (Linux >= 2.6, 64-bit)
00:00:13.109615 VMMDev: Guest Additions capability report: (0x0 -> 0x0) seamless: no, hostWindowMapping: no, graphics: no
00:00:13.109645 GUI: UISession::sltAdditionsChange: GA state change event came, notifying listeners.
00:00:13.109657 GUI: UIMachineLogicNormal::sltCheckForRequestedVisualStateType: Requested-state=0, Machine-state=5
00:00:13.109695 GUI: UISession::sltAdditionsChange: GA state change event came, notifying listeners.
00:00:13.109700 GUI: UIMachineLogicNormal::sltCheckForRequestedVisualStateType: Requested-state=0, Machine-state=5
00:00:13.149574 VMMDev: Guest reported fixed hypervisor window at 00001000000 LB 0xc00000 (rc=VINF_SUCCESS)
00:00:13.149616 VMMDev: vmmDevReqHandler_HeartbeatConfigure: No change (fHeartbeatActive=false).
00:00:13.149639 VMMDev: Heartbeat flatline timer set to trigger after 4 000 000 000 ns
00:00:13.149753 VMMDev: Guest Log: vgdrvHeartbeatInit: Setting up heartbeat to trigger every 2000 milliseconds
00:00:13.149905 GUI: UISession::sltAdditionsChange: GA state really changed, notifying listeners.
00:00:13.149919 GUI: UIMachineViewNormal::adjustGuestScreenSize: Adjust guest-screen size if necessary.
00:00:13.149924 GUI: UISession::sltAdditionsChange: GA state change event came, notifying listeners.
00:00:13.149928 GUI: UIMachineLogicNormal::sltCheckForRequestedVisualStateType: Requested-state=0, Machine-state=5
00:00:13.164073 VMMDev: Guest Log: vboxguest: misc device minor 55, IRQ 20, I/O port d020, MMIO at 00000000f0400000 (size 0x400000)
00:00:13.468866 VBVA: InfoScreen: [0] @0,0 800x600, line 0xc80, BPP 32, flags 0x1
00:00:13.468883 Display::handleDisplayResize: uScreenId=0 pvVRAM=000000000a570000 w=800 h=600 bpp=32 cbLine=0xC80 flags=0x1
00:00:13.468908 GUI: UIFrameBufferPrivate::NotifyChange: Screen=0, Origin=0x0, Size=800x600, Sending to async-handler
00:00:13.468937 GUI: UIMachineView::sltHandleNotifyChange: Screen=0, Size=800x600
00:00:13.468948 GUI: UIFrameBufferPrivate::handleNotifyChange: Size=800x600
00:00:13.469101 GUI: UIFrameBufferPrivate::performResize: Size=800x600, Directly using source bitmap content
00:00:13.713966 Display::handleDisplayResize: uScreenId=0 pvVRAM=000000000a570000 w=800 h=600 bpp=32 cbLine=0xC80 flags=0x1
00:00:13.714012 GUI: UIFrameBufferPrivate::NotifyChange: Screen=0, Origin=0x0, Size=800x600, Sending to async-handler
00:00:13.714068 GUI: UIMachineView::sltHandleNotifyChange: Screen=0, Size=800x600
00:00:13.714078 GUI: UIFrameBufferPrivate::handleNotifyChange: Size=800x600
00:00:13.714094 GUI: UIFrameBufferPrivate::performResize: Size=800x600, Directly using source bitmap content
00:00:14.545514 AC97: Reset
00:00:14.545856 AC97: Reset
00:00:14.574990 Audio: Skipping to create input stream "[LUN#0] ac97.mc", as the host audio backend reached its maximum of concurrent audio input streams
00:00:14.576004 Audio: Skipping to create input stream "[LUN#0] ac97.mc", as the host audio backend reached its maximum of concurrent audio input streams
00:00:14.577597 Audio: Skipping to create input stream "[LUN#0] ac97.mc", as the host audio backend reached its maximum of concurrent audio input streams
00:00:14.577702 Audio: Skipping to create input stream "[LUN#0] ac97.mc", as the host audio backend reached its maximum of concurrent audio input streams
00:00:14.587470 Audio: Skipping to create input stream "[LUN#0] ac97.mc", as the host audio backend reached its maximum of concurrent audio input streams
00:00:14.588002 Audio: Skipping to create input stream "[LUN#0] ac97.mc", as the host audio backend reached its maximum of concurrent audio input streams
00:00:14.588477 Audio: Skipping to create input stream "[LUN#0] ac97.mc", as the host audio backend reached its maximum of concurrent audio input streams
00:00:14.588878 Audio: Skipping to create input stream "[LUN#0] ac97.mc", as the host audio backend reached its maximum of concurrent audio input streams
00:00:14.607497 Audio: Skipping to create input stream "[LUN#0] ac97.mc", as the host audio backend reached its maximum of concurrent audio input streams
00:00:14.893611 NAT: IPv6 not supported
00:00:14.937758 NAT: DHCP offered IP address 10.0.2.15
00:00:15.360192 GUI: UISession::sltAdditionsChange: GA state really changed, notifying listeners.
00:00:15.360223 GUI: UIMachineViewNormal::adjustGuestScreenSize: Adjust guest-screen size if necessary.
00:00:15.360240 GUI: UIMachineView::sltPerformGuestResize: Sending guest size-hint to screen 0 as 1600x795
00:00:15.360258 VMMDev: SetVideoModeHint: Got a video mode hint (1600x795x32)@(0x0),(1;0) at 0
00:00:15.360264 GUI: UISession::sltAdditionsChange: GA state change event came, notifying listeners.
00:00:15.360267 GUI: UIMachineLogicNormal::sltCheckForRequestedVisualStateType: Requested-state=0, Machine-state=5
00:00:15.376331 VBVA: InfoScreen: [0] @0,0 1600x795, line 0x1900, BPP 32, flags 0x1
00:00:15.376358 Display::handleDisplayResize: uScreenId=0 pvVRAM=000000000a570000 w=1600 h=795 bpp=32 cbLine=0x1900 flags=0x1
00:00:15.376391 GUI: UIFrameBufferPrivate::NotifyChange: Screen=0, Origin=0x0, Size=1600x795, Sending to async-handler
00:00:15.376435 GUI: UIMachineView::sltHandleNotifyChange: Screen=0, Size=1600x795
00:00:15.376446 GUI: UIFrameBufferPrivate::handleNotifyChange: Size=1600x795
00:00:15.376462 GUI: UIFrameBufferPrivate::performResize: Size=1600x795, Directly using source bitmap content
00:00:15.378134 GUI: UIMachineView::storeGuestSizeHint: Storing guest-screen size-hint for screen 0 as 1600x795
00:00:15.381490 Display::handleDisplayResize: uScreenId=0 pvVRAM=000000000a570000 w=1600 h=795 bpp=32 cbLine=0x1900 flags=0x1
00:00:15.381538 GUI: UIFrameBufferPrivate::NotifyChange: Screen=0, Origin=0x0, Size=1600x795, Sending to async-handler
00:00:15.383658 GUI: UIMachineView::sltHandleNotifyChange: Screen=0, Size=1600x795
00:00:15.383680 GUI: UIFrameBufferPrivate::handleNotifyChange: Size=1600x795
00:00:15.383695 GUI: UIFrameBufferPrivate::performResize: Size=1600x795, Directly using source bitmap content
00:00:15.383762 GUI: UIMachineView::storeGuestSizeHint: Storing guest-screen size-hint for screen 0 as 1600x795
00:00:15.928656 VMMDev: Guest Additions capability report: (0x0 -> 0x0) seamless: no, hostWindowMapping: no, graphics: no
00:00:15.928983 GUI: UISession::sltAdditionsChange: GA state change event came, notifying listeners.
00:00:15.929018 GUI: UIMachineLogicNormal::sltCheckForRequestedVisualStateType: Requested-state=0, Machine-state=5
00:00:16.050067 VMMDev: Guest Additions capability report: (0x0 -> 0x1) seamless: yes, hostWindowMapping: no, graphics: no
00:00:16.050206 GUI: UISession::sltAdditionsChange: GA state really changed, notifying listeners.
00:00:16.050229 GUI: UIMachineViewNormal::adjustGuestScreenSize: Adjust guest-screen size if necessary.
00:00:16.050234 GUI: UISession::sltAdditionsChange: GA state change event came, notifying listeners.
00:00:16.050237 GUI: UIMachineLogicNormal::sltCheckForRequestedVisualStateType: Requested-state=0, Machine-state=5
00:00:16.079011 VMMDev: Guest Log: VBoxService 5.0.30 r112061 (verbosity: 0) linux.amd64 (Nov 23 2016 15:18:17) release log
00:00:16.079030 VMMDev: Guest Log: 00:00:00.000073 main     Log opened 2017-04-12T17:39:00.825168000Z
00:00:16.079071 VMMDev: Guest Log: 00:00:00.000146 main     OS Product: Linux
00:00:16.079099 VMMDev: Guest Log: 00:00:00.000176 main     OS Release: 4.4.0-72-generic
00:00:16.079123 VMMDev: Guest Log: 00:00:00.000201 main     OS Version: #93-Ubuntu SMP Fri Mar 31 14:07:41 UTC 2017
00:00:16.079148 VMMDev: Guest Log: 00:00:00.000225 main     Executable: /opt/VBoxGuestAdditions-5.0.30/sbin/VBoxService
00:00:16.079153 VMMDev: Guest Log: 00:00:00.000226 main     Process ID: 1114
00:00:16.079155 VMMDev: Guest Log: 00:00:00.000227 main     Package type: LINUX_64BITS_GENERIC
00:00:16.080975 VMMDev: Guest Log: 00:00:00.002069 main     5.0.30 r112061 started. Verbose level = 0
00:00:16.081569 GUI: UISession::sltAdditionsChange: GA state change event came, notifying listeners.
00:00:16.081579 GUI: UIMachineLogicNormal::sltCheckForRequestedVisualStateType: Requested-state=0, Machine-state=5
00:00:16.086949 GUI: UISession::sltAdditionsChange: GA state really changed, notifying listeners.
00:00:16.086972 GUI: UIMachineViewNormal::adjustGuestScreenSize: Adjust guest-screen size if necessary.
00:00:16.086976 GUI: UISession::sltAdditionsChange: GA state change event came, notifying listeners.
00:00:16.086980 GUI: UIMachineLogicNormal::sltCheckForRequestedVisualStateType: Requested-state=0, Machine-state=5
